<?xml version="1.0" encoding="utf-8"?>
<!DOCTYPE eagle SYSTEM "eagle.dtd">
<eagle version="8.5.1">
<drawing>
<settings>
<setting alwaysvectorfont="no"/>
<setting verticaltext="up"/>
</settings>
<grid distance="0.1" unitdist="inch" unit="inch" style="lines" multiple="1" display="no" altdistance="0.01" altunitdist="inch" altunit="inch"/>
<layers>
<layer number="1" name="Top" color="4" fill="1" visible="no" active="no"/>
<layer number="2" name="Route2" color="1" fill="3" visible="no" active="no"/>
<layer number="3" name="Route3" color="4" fill="3" visible="no" active="no"/>
<layer number="4" name="Route4" color="1" fill="4" visible="no" active="no"/>
<layer number="5" name="Route5" color="4" fill="4" visible="no" active="no"/>
<layer number="6" name="Route6" color="1" fill="8" visible="no" active="no"/>
<layer number="7" name="Route7" color="4" fill="8" visible="no" active="no"/>
<layer number="8" name="Route8" color="1" fill="2" visible="no" active="no"/>
<layer number="9" name="Route9" color="4" fill="2" visible="no" active="no"/>
<layer number="10" name="Route10" color="1" fill="7" visible="no" active="no"/>
<layer number="11" name="Route11" color="4" fill="7" visible="no" active="no"/>
<layer number="12" name="Route12" color="1" fill="5" visible="no" active="no"/>
<layer number="13" name="Route13" color="4" fill="5" visible="no" active="no"/>
<layer number="14" name="Route14" color="1" fill="6" visible="no" active="no"/>
<layer number="15" name="Route15" color="4" fill="6" visible="no" active="no"/>
<layer number="16" name="Bottom" color="1" fill="1" visible="no" active="no"/>
<layer number="17" name="Pads" color="2" fill="1" visible="no" active="no"/>
<layer number="18" name="Vias" color="2" fill="1" visible="no" active="no"/>
<layer number="19" name="Unrouted" color="6" fill="1" visible="no" active="no"/>
<layer number="20" name="Dimension" color="15" fill="1" visible="no" active="no"/>
<layer number="21" name="tPlace" color="14" fill="1" visible="no" active="no"/>
<layer number="22" name="bPlace" color="7" fill="1" visible="no" active="no"/>
<layer number="23" name="tOrigins" color="15" fill="1" visible="no" active="no"/>
<layer number="24" name="bOrigins" color="15" fill="1" visible="no" active="no"/>
<layer number="25" name="tNames" color="7" fill="1" visible="no" active="no"/>
<layer number="26" name="bNames" color="7" fill="1" visible="no" active="no"/>
<layer number="27" name="tValues" color="7" fill="1" visible="no" active="no"/>
<layer number="28" name="bValues" color="7" fill="1" visible="no" active="no"/>
<layer number="29" name="tStop" color="7" fill="3" visible="no" active="no"/>
<layer number="30" name="bStop" color="7" fill="6" visible="no" active="no"/>
<layer number="31" name="tCream" color="7" fill="4" visible="no" active="no"/>
<layer number="32" name="bCream" color="7" fill="5" visible="no" active="no"/>
<layer number="33" name="tFinish" color="6" fill="3" visible="no" active="no"/>
<layer number="34" name="bFinish" color="6" fill="6" visible="no" active="no"/>
<layer number="35" name="tGlue" color="7" fill="4" visible="no" active="no"/>
<layer number="36" name="bGlue" color="7" fill="5" visible="no" active="no"/>
<layer number="37" name="tTest" color="7" fill="1" visible="no" active="no"/>
<layer number="38" name="bTest" color="7" fill="1" visible="no" active="no"/>
<layer number="39" name="tKeepout" color="4" fill="11" visible="no" active="no"/>
<layer number="40" name="bKeepout" color="1" fill="11" visible="no" active="no"/>
<layer number="41" name="tRestrict" color="4" fill="10" visible="no" active="no"/>
<layer number="42" name="bRestrict" color="1" fill="10" visible="no" active="no"/>
<layer number="43" name="vRestrict" color="2" fill="10" visible="no" active="no"/>
<layer number="44" name="Drills" color="7" fill="1" visible="no" active="no"/>
<layer number="45" name="Holes" color="7" fill="1" visible="no" active="no"/>
<layer number="46" name="Milling" color="3" fill="1" visible="no" active="no"/>
<layer number="47" name="Measures" color="7" fill="1" visible="no" active="no"/>
<layer number="48" name="Document" color="7" fill="1" visible="no" active="no"/>
<layer number="49" name="Reference" color="7" fill="1" visible="no" active="no"/>
<layer number="50" name="dxf" color="7" fill="1" visible="no" active="no"/>
<layer number="51" name="tDocu" color="7" fill="1" visible="no" active="no"/>
<layer number="52" name="bDocu" color="7" fill="1" visible="no" active="no"/>
<layer number="53" name="tGND_GNDA" color="7" fill="9" visible="no" active="no"/>
<layer number="54" name="bGND_GNDA" color="1" fill="9" visible="no" active="no"/>
<layer number="56" name="wert" color="7" fill="1" visible="no" active="no"/>
<layer number="57" name="tCAD" color="7" fill="1" visible="no" active="no"/>
<layer number="59" name="tCarbon" color="7" fill="1" visible="no" active="no"/>
<layer number="60" name="bCarbon" color="7" fill="1" visible="no" active="no"/>
<layer number="88" name="SimResults" color="9" fill="1" visible="yes" active="yes"/>
<layer number="89" name="SimProbes" color="9" fill="1" visible="yes" active="yes"/>
<layer number="90" name="Modules" color="5" fill="1" visible="yes" active="yes"/>
<layer number="91" name="Nets" color="2" fill="1" visible="yes" active="yes"/>
<layer number="92" name="Busses" color="1" fill="1" visible="yes" active="yes"/>
<layer number="93" name="Pins" color="2" fill="1" visible="yes" active="yes"/>
<layer number="94" name="Symbols" color="4" fill="1" visible="yes" active="yes"/>
<layer number="95" name="Names" color="7" fill="1" visible="yes" active="yes"/>
<layer number="96" name="Values" color="7" fill="1" visible="yes" active="yes"/>
<layer number="97" name="Info" color="7" fill="1" visible="yes" active="yes"/>
<layer number="98" name="Guide" color="6" fill="1" visible="yes" active="yes"/>
<layer number="99" name="SpiceOrder" color="7" fill="1" visible="no" active="no"/>
<layer number="100" name="Muster" color="7" fill="1" visible="no" active="no"/>
<layer number="101" name="Patch_Top" color="12" fill="4" visible="yes" active="yes"/>
<layer number="102" name="Vscore" color="7" fill="1" visible="yes" active="yes"/>
<layer number="103" name="fp3" color="7" fill="1" visible="yes" active="yes"/>
<layer number="104" name="Name" color="7" fill="1" visible="yes" active="yes"/>
<layer number="105" name="Beschreib" color="9" fill="1" visible="yes" active="yes"/>
<layer number="106" name="BGA-Top" color="4" fill="1" visible="yes" active="yes"/>
<layer number="107" name="BD-Top" color="5" fill="1" visible="yes" active="yes"/>
<layer number="108" name="fp8" color="7" fill="1" visible="yes" active="yes"/>
<layer number="109" name="fp9" color="7" fill="1" visible="yes" active="yes"/>
<layer number="110" name="fp0" color="7" fill="1" visible="yes" active="yes"/>
<layer number="111" name="LPC17xx" color="7" fill="1" visible="yes" active="yes"/>
<layer number="112" name="tSilk" color="7" fill="1" visible="yes" active="yes"/>
<layer number="113" name="ReferenceLS" color="7" fill="1" visible="no" active="no"/>
<layer number="114" name="Badge_Outline" color="7" fill="1" visible="yes" active="yes"/>
<layer number="115" name="ReferenceISLANDS" color="7" fill="1" visible="yes" active="yes"/>
<layer number="116" name="Patch_BOT" color="9" fill="4" visible="yes" active="yes"/>
<layer number="118" name="Rect_Pads" color="7" fill="1" visible="no" active="no"/>
<layer number="121" name="_tsilk" color="7" fill="1" visible="yes" active="yes"/>
<layer number="122" name="_bsilk" color="7" fill="1" visible="yes" active="yes"/>
<layer number="123" name="tTestmark" color="7" fill="1" visible="yes" active="yes"/>
<layer number="124" name="bTestmark" color="7" fill="1" visible="yes" active="yes"/>
<layer number="125" name="_tNames" color="7" fill="1" visible="yes" active="yes"/>
<layer number="126" name="_bNames" color="7" fill="1" visible="yes" active="yes"/>
<layer number="127" name="_tValues" color="7" fill="1" visible="yes" active="yes"/>
<layer number="128" name="_bValues" color="7" fill="1" visible="yes" active="yes"/>
<layer number="129" name="Mask" color="7" fill="1" visible="yes" active="yes"/>
<layer number="131" name="tAdjust" color="7" fill="1" visible="yes" active="yes"/>
<layer number="132" name="bAdjust" color="7" fill="1" visible="yes" active="yes"/>
<layer number="144" name="Drill_legend" color="7" fill="1" visible="yes" active="yes"/>
<layer number="150" name="Notes" color="7" fill="1" visible="yes" active="yes"/>
<layer number="151" name="HeatSink" color="7" fill="1" visible="yes" active="yes"/>
<layer number="152" name="_bDocu" color="7" fill="1" visible="yes" active="yes"/>
<layer number="153" name="FabDoc1" color="6" fill="1" visible="no" active="no"/>
<layer number="154" name="FabDoc2" color="2" fill="1" visible="no" active="no"/>
<layer number="155" name="FabDoc3" color="7" fill="15" visible="no" active="no"/>
<layer number="199" name="Contour" color="7" fill="1" visible="yes" active="yes"/>
<layer number="200" name="200bmp" color="1" fill="10" visible="yes" active="yes"/>
<layer number="201" name="201bmp" color="2" fill="1" visible="no" active="no"/>
<layer number="202" name="202bmp" color="3" fill="1" visible="no" active="no"/>
<layer number="203" name="203bmp" color="4" fill="10" visible="yes" active="yes"/>
<layer number="204" name="204bmp" color="5" fill="10" visible="yes" active="yes"/>
<layer number="205" name="205bmp" color="6" fill="10" visible="yes" active="yes"/>
<layer number="206" name="206bmp" color="7" fill="10" visible="yes" active="yes"/>
<layer number="207" name="207bmp" color="8" fill="10" visible="yes" active="yes"/>
<layer number="208" name="208bmp" color="9" fill="10" visible="yes" active="yes"/>
<layer number="209" name="209bmp" color="7" fill="1" visible="yes" active="yes"/>
<layer number="210" name="210bmp" color="7" fill="1" visible="yes" active="yes"/>
<layer number="211" name="211bmp" color="7" fill="1" visible="yes" active="yes"/>
<layer number="212" name="212bmp" color="7" fill="1" visible="yes" active="yes"/>
<layer number="213" name="213bmp" color="7" fill="1" visible="yes" active="yes"/>
<layer number="214" name="214bmp" color="7" fill="1" visible="yes" active="yes"/>
<layer number="215" name="215bmp" color="7" fill="1" visible="yes" active="yes"/>
<layer number="216" name="216bmp" color="7" fill="1" visible="yes" active="yes"/>
<layer number="217" name="217bmp" color="18" fill="1" visible="no" active="no"/>
<layer number="218" name="218bmp" color="19" fill="1" visible="no" active="no"/>
<layer number="219" name="219bmp" color="20" fill="1" visible="no" active="no"/>
<layer number="220" name="220bmp" color="21" fill="1" visible="no" active="no"/>
<layer number="221" name="221bmp" color="22" fill="1" visible="no" active="no"/>
<layer number="222" name="222bmp" color="23" fill="1" visible="no" active="no"/>
<layer number="223" name="223bmp" color="24" fill="1" visible="no" active="no"/>
<layer number="224" name="224bmp" color="25" fill="1" visible="no" active="no"/>
<layer number="225" name="225bmp" color="7" fill="1" visible="yes" active="yes"/>
<layer number="226" name="226bmp" color="7" fill="1" visible="yes" active="yes"/>
<layer number="227" name="227bmp" color="7" fill="1" visible="yes" active="yes"/>
<layer number="228" name="228bmp" color="7" fill="1" visible="yes" active="yes"/>
<layer number="229" name="229bmp" color="7" fill="1" visible="yes" active="yes"/>
<layer number="230" name="230bmp" color="7" fill="1" visible="yes" active="yes"/>
<layer number="231" name="Eagle3D_PG1" color="7" fill="1" visible="no" active="no"/>
<layer number="232" name="Eagle3D_PG2" color="7" fill="1" visible="no" active="no"/>
<layer number="233" name="Eagle3D_PG3" color="7" fill="1" visible="no" active="no"/>
<layer number="248" name="Housing" color="7" fill="1" visible="yes" active="yes"/>
<layer number="249" name="Edge" color="7" fill="1" visible="yes" active="yes"/>
<layer number="250" name="Descript" color="7" fill="1" visible="no" active="no"/>
<layer number="251" name="SMDround" color="7" fill="1" visible="no" active="no"/>
<layer number="254" name="cooling" color="7" fill="1" visible="yes" active="yes"/>
<layer number="255" name="routoute" color="7" fill="1" visible="yes" active="yes"/>
</layers>
<schematic xreflabel="%F%N/%S.%C%R" xrefpart="/%S.%C%R">
<libraries>
<library name="adafruit">
<packages>
<package name="ARDUINOR3">
<description>The new Arduino R3 'classic' adds duplicate I2C pins and an IORef pin (and an unused pin</description>
<wire x1="0" y1="0" x2="66.04" y2="0" width="0" layer="20"/>
<wire x1="66.04" y1="0" x2="66.04" y2="2.54" width="0" layer="20"/>
<wire x1="66.04" y1="2.54" x2="68.58" y2="5.08" width="0" layer="20"/>
<wire x1="68.58" y1="5.08" x2="68.58" y2="37.846" width="0" layer="20"/>
<wire x1="68.58" y1="37.846" x2="66.04" y2="40.386" width="0" layer="20"/>
<wire x1="66.04" y1="40.386" x2="66.04" y2="51.816" width="0" layer="20"/>
<wire x1="66.04" y1="51.816" x2="64.516" y2="53.34" width="0" layer="20"/>
<wire x1="64.516" y1="53.34" x2="0" y2="53.34" width="0" layer="20"/>
<wire x1="0" y1="53.34" x2="0" y2="0" width="0" layer="20"/>
<circle x="15.24" y="50.8" radius="1.796" width="0.127" layer="51"/>
<circle x="13.97" y="2.54" radius="1.796" width="0.127" layer="51"/>
<circle x="66.04" y="35.56" radius="1.796" width="0.127" layer="51"/>
<circle x="66.04" y="7.62" radius="1.796" width="0.127" layer="51"/>
<pad name="D4" x="53.34" y="50.8" drill="1" diameter="1.6764" shape="octagon"/>
<pad name="A0" x="50.8" y="2.54" drill="1" diameter="1.6764" shape="octagon"/>
<pad name="D3" x="55.88" y="50.8" drill="1" diameter="1.6764" shape="octagon"/>
<pad name="D2" x="58.42" y="50.8" drill="1" diameter="1.6764" shape="octagon"/>
<pad name="D1" x="60.96" y="50.8" drill="1" diameter="1.6764" shape="octagon"/>
<pad name="D0" x="63.5" y="50.8" drill="1" diameter="1.6764" shape="octagon"/>
<pad name="D5" x="50.8" y="50.8" drill="1" diameter="1.6764" shape="octagon"/>
<pad name="D6" x="48.26" y="50.8" drill="1" diameter="1.6764" shape="octagon"/>
<pad name="D7" x="45.72" y="50.8" drill="1" diameter="1.6764" shape="octagon"/>
<pad name="D8" x="41.656" y="50.8" drill="1" diameter="1.6764" shape="octagon"/>
<pad name="D9" x="39.116" y="50.8" drill="1" diameter="1.6764" shape="octagon"/>
<pad name="D10" x="36.576" y="50.8" drill="1" diameter="1.6764" shape="octagon"/>
<pad name="D11" x="34.036" y="50.8" drill="1" diameter="1.6764" shape="octagon"/>
<pad name="D12" x="31.496" y="50.8" drill="1" diameter="1.6764" shape="octagon"/>
<pad name="D13" x="28.956" y="50.8" drill="1" diameter="1.6764" shape="octagon"/>
<pad name="GND" x="26.416" y="50.8" drill="1" diameter="1.6764" shape="octagon"/>
<pad name="AREF" x="23.876" y="50.8" drill="1" diameter="1.6764" shape="octagon"/>
<pad name="A1" x="53.34" y="2.54" drill="1" diameter="1.6764" shape="octagon"/>
<pad name="A2" x="55.88" y="2.54" drill="1" diameter="1.6764" shape="octagon"/>
<pad name="A3" x="58.42" y="2.54" drill="1" diameter="1.6764" shape="octagon"/>
<pad name="A4" x="60.96" y="2.54" drill="1" diameter="1.6764" shape="octagon"/>
<pad name="A5" x="63.5" y="2.54" drill="1" diameter="1.6764" shape="octagon"/>
<pad name="VIN" x="45.72" y="2.54" drill="1" diameter="1.6764" shape="octagon"/>
<pad name="GND1" x="43.18" y="2.54" drill="1" diameter="1.6764" shape="octagon"/>
<pad name="GND2" x="40.64" y="2.54" drill="1" diameter="1.6764" shape="octagon"/>
<pad name="5V" x="38.1" y="2.54" drill="1" diameter="1.6764" shape="octagon"/>
<pad name="3V" x="35.56" y="2.54" drill="1" diameter="1.6764" shape="octagon"/>
<pad name="RESET" x="33.02" y="2.54" drill="1" diameter="1.6764" shape="octagon"/>
<pad name="SDA" x="21.336" y="50.8" drill="1" diameter="1.6764" shape="octagon"/>
<pad name="SCL" x="18.796" y="50.8" drill="1" diameter="1.6764" shape="octagon"/>
<pad name="IOREF" x="30.48" y="2.54" drill="1" diameter="1.6764" shape="octagon"/>
<pad name="RESERVED" x="27.94" y="2.54" drill="1" diameter="1.6764" shape="octagon"/>
<text x="31.7399" y="0.254" size="1.016" layer="21" font="vector">RST</text>
<text x="34.7523" y="3.81" size="1.016" layer="21" font="vector">3v</text>
<text x="37.5463" y="3.81" size="1.016" layer="21" font="vector">5v</text>
<text x="40.7771" y="3.81" size="1.016" layer="21" font="vector">Gnd</text>
<text x="44.7853" y="3.81" size="1.016" layer="21" font="vector">Vin</text>
<text x="54.1121" y="0.4623" size="1.016" layer="21" font="vector">Analog In</text>
<text x="50.419" y="3.81" size="1.016" layer="21" font="vector">0</text>
<text x="52.959" y="3.81" size="1.016" layer="21" font="vector">1</text>
<text x="55.499" y="3.81" size="1.016" layer="21" font="vector">2</text>
<text x="58.039" y="3.81" size="1.016" layer="21" font="vector">3</text>
<text x="60.579" y="3.81" size="1.016" layer="21" font="vector">4</text>
<text x="63.119" y="3.81" size="1.016" layer="21" font="vector">5</text>
<text x="22.225" y="48.514" size="1.016" layer="21" font="vector">ARef</text>
<text x="25.146" y="52.07" size="1.016" layer="21" font="vector">Gnd</text>
<text x="30.099" y="49.53" size="1.016" layer="21" font="vector" rot="R180">13</text>
<text x="32.639" y="49.53" size="1.016" layer="21" font="vector" rot="R180">12</text>
<text x="35.179" y="49.53" size="1.016" layer="21" font="vector" rot="R180">11</text>
<text x="37.719" y="49.53" size="1.016" layer="21" font="vector" rot="R180">10</text>
<text x="39.751" y="49.53" size="1.016" layer="21" font="vector" rot="R180">9</text>
<text x="42.291" y="49.53" size="1.016" layer="21" font="vector" rot="R180">8</text>
<text x="46.355" y="49.53" size="1.016" layer="21" font="vector" rot="R180">7</text>
<text x="48.895" y="49.53" size="1.016" layer="21" font="vector" rot="R180">6</text>
<text x="51.435" y="49.53" size="1.016" layer="21" font="vector" rot="R180">5</text>
<text x="53.975" y="49.53" size="1.016" layer="21" font="vector" rot="R180">4</text>
<text x="56.515" y="49.53" size="1.016" layer="21" font="vector" rot="R180">3</text>
<text x="59.055" y="49.53" size="1.016" layer="21" font="vector" rot="R180">2</text>
<text x="61.595" y="49.53" size="1.016" layer="21" font="vector" rot="R180">1</text>
<text x="64.135" y="49.53" size="1.016" layer="21" font="vector" rot="R180">0</text>
<text x="31.623" y="52.07" size="1.016" layer="21" font="vector">Digital I/O</text>
<text x="50.927" y="52.07" size="1.016" layer="21" font="vector">Digital I/O</text>
<text x="17.653" y="48.514" size="1.016" layer="21" font="vector">SCL</text>
<text x="19.939" y="52.07" size="1.016" layer="21" font="vector">SDA</text>
<text x="29.4539" y="3.81" size="1.016" layer="21" font="vector">IOr</text>
</package>
<package name="ARDUINOR3-BPLACE">
<wire x1="0" y1="0" x2="66.04" y2="0" width="0" layer="22"/>
<wire x1="66.04" y1="0" x2="66.04" y2="2.54" width="0" layer="22"/>
<wire x1="66.04" y1="2.54" x2="68.58" y2="5.08" width="0" layer="22"/>
<wire x1="68.58" y1="5.08" x2="68.58" y2="37.846" width="0" layer="22"/>
<wire x1="68.58" y1="37.846" x2="66.04" y2="40.386" width="0" layer="22"/>
<wire x1="66.04" y1="40.386" x2="66.04" y2="51.816" width="0" layer="22"/>
<wire x1="66.04" y1="51.816" x2="64.516" y2="53.34" width="0" layer="22"/>
<wire x1="64.516" y1="53.34" x2="0" y2="53.34" width="0" layer="22"/>
<wire x1="0" y1="53.34" x2="0" y2="0" width="0" layer="22"/>
<circle x="15.24" y="50.8" radius="1.796" width="0.127" layer="51"/>
<circle x="13.97" y="2.54" radius="1.796" width="0.127" layer="51"/>
<circle x="66.04" y="35.56" radius="1.796" width="0.127" layer="51"/>
<circle x="66.04" y="7.62" radius="1.796" width="0.127" layer="51"/>
<pad name="D4" x="53.34" y="50.8" drill="1" diameter="1.6764" shape="octagon"/>
<pad name="A0" x="50.8" y="2.54" drill="1" diameter="1.6764" shape="octagon"/>
<pad name="D3" x="55.88" y="50.8" drill="1" diameter="1.6764" shape="octagon"/>
<pad name="D2" x="58.42" y="50.8" drill="1" diameter="1.6764" shape="octagon"/>
<pad name="D1" x="60.96" y="50.8" drill="1" diameter="1.6764" shape="octagon"/>
<pad name="D0" x="63.5" y="50.8" drill="1" diameter="1.6764" shape="octagon"/>
<pad name="D5" x="50.8" y="50.8" drill="1" diameter="1.6764" shape="octagon"/>
<pad name="D6" x="48.26" y="50.8" drill="1" diameter="1.6764" shape="octagon"/>
<pad name="D7" x="45.72" y="50.8" drill="1" diameter="1.6764" shape="octagon"/>
<pad name="D8" x="41.656" y="50.8" drill="1" diameter="1.6764" shape="octagon"/>
<pad name="D9" x="39.116" y="50.8" drill="1" diameter="1.6764" shape="octagon"/>
<pad name="D10" x="36.576" y="50.8" drill="1" diameter="1.6764" shape="octagon"/>
<pad name="D11" x="34.036" y="50.8" drill="1" diameter="1.6764" shape="octagon"/>
<pad name="D12" x="31.496" y="50.8" drill="1" diameter="1.6764" shape="octagon"/>
<pad name="D13" x="28.956" y="50.8" drill="1" diameter="1.6764" shape="octagon"/>
<pad name="GND" x="26.416" y="50.8" drill="1" diameter="1.6764" shape="octagon"/>
<pad name="AREF" x="23.876" y="50.8" drill="1" diameter="1.6764" shape="octagon"/>
<pad name="A1" x="53.34" y="2.54" drill="1" diameter="1.6764" shape="octagon"/>
<pad name="A2" x="55.88" y="2.54" drill="1" diameter="1.6764" shape="octagon"/>
<pad name="A3" x="58.42" y="2.54" drill="1" diameter="1.6764" shape="octagon"/>
<pad name="A4" x="60.96" y="2.54" drill="1" diameter="1.6764" shape="octagon"/>
<pad name="A5" x="63.5" y="2.54" drill="1" diameter="1.6764" shape="octagon"/>
<pad name="VIN" x="45.72" y="2.54" drill="1" diameter="1.6764" shape="octagon"/>
<pad name="GND1" x="43.18" y="2.54" drill="1" diameter="1.6764" shape="octagon"/>
<pad name="GND2" x="40.64" y="2.54" drill="1" diameter="1.6764" shape="octagon"/>
<pad name="5V" x="38.1" y="2.54" drill="1" diameter="1.6764" shape="octagon"/>
<pad name="3V" x="35.56" y="2.54" drill="1" diameter="1.6764" shape="octagon"/>
<pad name="RESET" x="33.02" y="2.54" drill="1" diameter="1.6764" shape="octagon"/>
<pad name="SDA" x="21.336" y="50.8" drill="1" diameter="1.6764" shape="octagon"/>
<pad name="SCL" x="18.796" y="50.8" drill="1" diameter="1.6764" shape="octagon"/>
<pad name="IOREF" x="30.48" y="2.54" drill="1" diameter="1.6764" shape="octagon"/>
<pad name="RESERVED" x="27.94" y="2.54" drill="1" diameter="1.6764" shape="octagon"/>
<text x="33.528" y="3.7999" size="1.016" layer="21" font="vector" rot="R90">RST</text>
<text x="34.7523" y="3.81" size="1.016" layer="21" font="vector">3v</text>
<text x="37.5463" y="3.81" size="1.016" layer="21" font="vector">5v</text>
<text x="40.7771" y="3.81" size="1.016" layer="21" font="vector">Gnd</text>
<text x="44.7853" y="3.81" size="1.016" layer="21" font="vector">Vin</text>
<text x="54.1121" y="0.4623" size="1.016" layer="21" font="vector">Analog In</text>
<text x="50.419" y="3.81" size="1.016" layer="21" font="vector">0</text>
<text x="52.959" y="3.81" size="1.016" layer="21" font="vector">1</text>
<text x="55.499" y="3.81" size="1.016" layer="21" font="vector">2</text>
<text x="58.039" y="3.81" size="1.016" layer="21" font="vector">3</text>
<text x="60.579" y="3.81" size="1.016" layer="21" font="vector">4</text>
<text x="63.119" y="3.81" size="1.016" layer="21" font="vector">5</text>
<text x="23.368" y="49.911" size="1.016" layer="21" font="vector" rot="R270">ARef</text>
<text x="25.908" y="49.784" size="1.016" layer="21" font="vector" rot="R270">gnd</text>
<text x="30.099" y="49.53" size="1.016" layer="21" font="vector" rot="R180">13</text>
<text x="32.639" y="49.53" size="1.016" layer="21" font="vector" rot="R180">12</text>
<text x="35.179" y="49.53" size="1.016" layer="21" font="vector" rot="R180">11</text>
<text x="37.719" y="49.53" size="1.016" layer="21" font="vector" rot="R180">10</text>
<text x="39.751" y="49.53" size="1.016" layer="21" font="vector" rot="R180">9</text>
<text x="42.291" y="49.53" size="1.016" layer="21" font="vector" rot="R180">8</text>
<text x="46.355" y="49.53" size="1.016" layer="21" font="vector" rot="R180">7</text>
<text x="48.895" y="49.53" size="1.016" layer="21" font="vector" rot="R180">6</text>
<text x="51.435" y="49.53" size="1.016" layer="21" font="vector" rot="R180">5</text>
<text x="53.975" y="49.53" size="1.016" layer="21" font="vector" rot="R180">4</text>
<text x="56.515" y="49.53" size="1.016" layer="21" font="vector" rot="R180">3</text>
<text x="59.055" y="49.53" size="1.016" layer="21" font="vector" rot="R180">2</text>
<text x="61.595" y="49.53" size="1.016" layer="21" font="vector" rot="R180">1</text>
<text x="64.135" y="49.53" size="1.016" layer="21" font="vector" rot="R180">0</text>
<text x="31.623" y="52.07" size="1.016" layer="21" font="vector">Digital I/O</text>
<text x="50.927" y="52.07" size="1.016" layer="21" font="vector">Digital I/O</text>
<text x="18.288" y="49.911" size="1.016" layer="21" font="vector" rot="R270">SCL</text>
<text x="20.828" y="49.911" size="1.016" layer="21" font="vector" rot="R270">SDA</text>
<text x="30.988" y="3.7999" size="1.016" layer="21" font="vector" rot="R90">IOr</text>
</package>
</packages>
<symbols>
<symbol name="ARDUINOR3">
<wire x1="-33.02" y1="25.4" x2="-33.02" y2="-25.4" width="0.254" layer="94"/>
<wire x1="-33.02" y1="-25.4" x2="25.4" y2="-25.4" width="0.254" layer="94"/>
<wire x1="25.4" y1="-25.4" x2="25.4" y2="-22.86" width="0.254" layer="94"/>
<wire x1="25.4" y1="-22.86" x2="30.48" y2="-17.78" width="0.254" layer="94"/>
<wire x1="30.48" y1="-17.78" x2="30.48" y2="7.62" width="0.254" layer="94"/>
<wire x1="30.48" y1="7.62" x2="25.4" y2="12.7" width="0.254" layer="94"/>
<wire x1="25.4" y1="12.7" x2="25.4" y2="22.86" width="0.254" layer="94"/>
<wire x1="25.4" y1="22.86" x2="22.86" y2="25.4" width="0.254" layer="94"/>
<wire x1="22.86" y1="25.4" x2="-33.02" y2="25.4" width="0.254" layer="94"/>
<wire x1="-25.4" y1="17.78" x2="-25.4" y2="-10.16" width="0.254" layer="94" style="shortdash"/>
<wire x1="-25.4" y1="-10.16" x2="22.86" y2="-10.16" width="0.254" layer="94" style="shortdash"/>
<wire x1="22.86" y1="-10.16" x2="22.86" y2="-15.24" width="0.254" layer="94" style="shortdash"/>
<wire x1="-22.86" y1="17.78" x2="-22.86" y2="-7.62" width="0.254" layer="94" style="shortdash"/>
<wire x1="-22.86" y1="-7.62" x2="20.32" y2="-7.62" width="0.254" layer="94" style="shortdash"/>
<wire x1="20.32" y1="-7.62" x2="20.32" y2="-15.24" width="0.254" layer="94" style="shortdash"/>
<text x="-17.78" y="2.54" size="5.08" layer="94">ARDUINO</text>
<text x="-10.16" y="-2.54" size="2.54" layer="94">UNO R3</text>
<pin name="D0" x="20.32" y="30.48" visible="pin" length="middle" rot="R270"/>
<pin name="D1" x="17.78" y="30.48" visible="pin" length="middle" rot="R270"/>
<pin name="D2" x="15.24" y="30.48" visible="pin" length="middle" rot="R270"/>
<pin name="D3" x="12.7" y="30.48" visible="pin" length="middle" rot="R270"/>
<pin name="D4" x="10.16" y="30.48" visible="pin" length="middle" rot="R270"/>
<pin name="D5" x="7.62" y="30.48" visible="pin" length="middle" rot="R270"/>
<pin name="D6" x="5.08" y="30.48" visible="pin" length="middle" rot="R270"/>
<pin name="D7" x="2.54" y="30.48" visible="pin" length="middle" rot="R270"/>
<pin name="D8" x="-2.54" y="30.48" visible="pin" length="middle" rot="R270"/>
<pin name="D9" x="-5.08" y="30.48" visible="pin" length="middle" rot="R270"/>
<pin name="D10" x="-7.62" y="30.48" visible="pin" length="middle" rot="R270"/>
<pin name="D11" x="-10.16" y="30.48" visible="pin" length="middle" rot="R270"/>
<pin name="D12" x="-12.7" y="30.48" visible="pin" length="middle" rot="R270"/>
<pin name="D13" x="-15.24" y="30.48" visible="pin" length="middle" rot="R270"/>
<pin name="GND" x="-17.78" y="30.48" visible="pin" length="middle" direction="pwr" rot="R270"/>
<pin name="AREF" x="-20.32" y="30.48" visible="pin" length="middle" rot="R270"/>
<pin name="A5/SCL" x="22.86" y="-30.48" visible="pin" length="middle" rot="R90"/>
<pin name="A4/SDA" x="20.32" y="-30.48" visible="pin" length="middle" rot="R90"/>
<pin name="A3" x="17.78" y="-30.48" visible="pin" length="middle" rot="R90"/>
<pin name="A2" x="15.24" y="-30.48" visible="pin" length="middle" rot="R90"/>
<pin name="A1" x="12.7" y="-30.48" visible="pin" length="middle" rot="R90"/>
<pin name="A0" x="10.16" y="-30.48" visible="pin" length="middle" rot="R90"/>
<pin name="VIN" x="5.08" y="-30.48" visible="pin" length="middle" direction="pwr" rot="R90"/>
<pin name="GND1" x="2.54" y="-30.48" visible="pin" length="middle" direction="pwr" rot="R90"/>
<pin name="GND2" x="0" y="-30.48" visible="pin" length="middle" direction="pwr" rot="R90"/>
<pin name="5V" x="-2.54" y="-30.48" visible="pin" length="middle" direction="pwr" rot="R90"/>
<pin name="3V" x="-5.08" y="-30.48" visible="pin" length="middle" direction="pwr" rot="R90"/>
<pin name="/RESET" x="-7.62" y="-30.48" visible="pin" length="middle" rot="R90"/>
<pin name="IOREF" x="-10.16" y="-30.48" visible="pin" length="middle" direction="out" rot="R90"/>
<pin name="RESERVED" x="-12.7" y="-30.48" visible="pin" length="middle" direction="nc" rot="R90"/>
<pin name="SCL" x="-25.4" y="30.48" visible="pin" length="middle" rot="R270"/>
<pin name="SDA" x="-22.86" y="30.48" visible="pin" length="middle" rot="R270"/>
</symbol>
</symbols>
<devicesets>
<deviceset name="ARDUINOR3" prefix="U">
<description>This is a new object for the new Arduino R3 - with extra pins that you may want to use (such as IOref, and duplicated A4/A5</description>
<gates>
<gate name="G$1" symbol="ARDUINOR3" x="2.54" y="0"/>
</gates>
<devices>
<device name="-DIMENSION" package="ARDUINOR3">
<connects>
<connect gate="G$1" pin="/RESET" pad="RESET"/>
<connect gate="G$1" pin="3V" pad="3V"/>
<connect gate="G$1" pin="5V" pad="5V"/>
<connect gate="G$1" pin="A0" pad="A0"/>
<connect gate="G$1" pin="A1" pad="A1"/>
<connect gate="G$1" pin="A2" pad="A2"/>
<connect gate="G$1" pin="A3" pad="A3"/>
<connect gate="G$1" pin="A4/SDA" pad="A4"/>
<connect gate="G$1" pin="A5/SCL" pad="A5"/>
<connect gate="G$1" pin="AREF" pad="AREF"/>
<connect gate="G$1" pin="D0" pad="D0"/>
<connect gate="G$1" pin="D1" pad="D1"/>
<connect gate="G$1" pin="D10" pad="D10"/>
<connect gate="G$1" pin="D11" pad="D11"/>
<connect gate="G$1" pin="D12" pad="D12"/>
<connect gate="G$1" pin="D13" pad="D13"/>
<connect gate="G$1" pin="D2" pad="D2"/>
<connect gate="G$1" pin="D3" pad="D3"/>
<connect gate="G$1" pin="D4" pad="D4"/>
<connect gate="G$1" pin="D5" pad="D5"/>
<connect gate="G$1" pin="D6" pad="D6"/>
<connect gate="G$1" pin="D7" pad="D7"/>
<connect gate="G$1" pin="D8" pad="D8"/>
<connect gate="G$1" pin="D9" pad="D9"/>
<connect gate="G$1" pin="GND" pad="GND"/>
<connect gate="G$1" pin="GND1" pad="GND1"/>
<connect gate="G$1" pin="GND2" pad="GND2"/>
<connect gate="G$1" pin="IOREF" pad="IOREF"/>
<connect gate="G$1" pin="RESERVED" pad="RESERVED"/>
<connect gate="G$1" pin="SCL" pad="SCL"/>
<connect gate="G$1" pin="SDA" pad="SDA"/>
<connect gate="G$1" pin="VIN" pad="VIN"/>
</connects>
<technologies>
<technology name=""/>
</technologies>
</device>
<device name="-BPLACE" package="ARDUINOR3-BPLACE">
<connects>
<connect gate="G$1" pin="/RESET" pad="RESET"/>
<connect gate="G$1" pin="3V" pad="3V"/>
<connect gate="G$1" pin="5V" pad="5V"/>
<connect gate="G$1" pin="A0" pad="A0"/>
<connect gate="G$1" pin="A1" pad="A1"/>
<connect gate="G$1" pin="A2" pad="A2"/>
<connect gate="G$1" pin="A3" pad="A3"/>
<connect gate="G$1" pin="A4/SDA" pad="A4"/>
<connect gate="G$1" pin="A5/SCL" pad="A5"/>
<connect gate="G$1" pin="AREF" pad="AREF"/>
<connect gate="G$1" pin="D0" pad="D0"/>
<connect gate="G$1" pin="D1" pad="D1"/>
<connect gate="G$1" pin="D10" pad="D10"/>
<connect gate="G$1" pin="D11" pad="D11"/>
<connect gate="G$1" pin="D12" pad="D12"/>
<connect gate="G$1" pin="D13" pad="D13"/>
<connect gate="G$1" pin="D2" pad="D2"/>
<connect gate="G$1" pin="D3" pad="D3"/>
<connect gate="G$1" pin="D4" pad="D4"/>
<connect gate="G$1" pin="D5" pad="D5"/>
<connect gate="G$1" pin="D6" pad="D6"/>
<connect gate="G$1" pin="D7" pad="D7"/>
<connect gate="G$1" pin="D8" pad="D8"/>
<connect gate="G$1" pin="D9" pad="D9"/>
<connect gate="G$1" pin="GND" pad="GND"/>
<connect gate="G$1" pin="GND1" pad="GND1"/>
<connect gate="G$1" pin="GND2" pad="GND2"/>
<connect gate="G$1" pin="IOREF" pad="IOREF"/>
<connect gate="G$1" pin="RESERVED" pad="RESERVED"/>
<connect gate="G$1" pin="SCL" pad="SCL"/>
<connect gate="G$1" pin="SDA" pad="SDA"/>
<connect gate="G$1" pin="VIN" pad="VIN"/>
</connects>
<technologies>
<technology name=""/>
</technologies>
</device>
</devices>
</deviceset>
</devicesets>
</library>
<library name="Bluetooth HC-05">
<description>Bluetooth HC05 Module. See http://mcuoneclipse.com/2013/02/14/bluetooth-with-the-freedom-board/</description>
<packages>
<package name="BLUETOOTH_SMD">
<description>HC-05</description>
<wire x1="-6.35" y1="4.81" x2="-6.35" y2="13.31" width="0.127" layer="21"/>
<wire x1="-6.35" y1="13.31" x2="6.65" y2="13.31" width="0.127" layer="21"/>
<wire x1="6.65" y1="13.31" x2="6.65" y2="4.81" width="0.127" layer="21"/>
<smd name="1" x="-6.35" y="3.81" dx="2" dy="1" layer="1"/>
<smd name="2" x="-6.35" y="2.31" dx="2" dy="1" layer="1"/>
<smd name="3" x="-6.35" y="0.81" dx="2" dy="1" layer="1"/>
<smd name="4" x="-6.35" y="-0.69" dx="2" dy="1" layer="1"/>
<smd name="5" x="-6.35" y="-2.19" dx="2" dy="1" layer="1"/>
<smd name="6" x="-6.35" y="-3.69" dx="2" dy="1" layer="1"/>
<smd name="7" x="-6.35" y="-5.19" dx="2" dy="1" layer="1"/>
<smd name="8" x="-6.35" y="-6.69" dx="2" dy="1" layer="1"/>
<smd name="9" x="-6.35" y="-8.19" dx="2" dy="1" layer="1"/>
<smd name="10" x="-6.35" y="-9.69" dx="2" dy="1" layer="1"/>
<smd name="11" x="-6.35" y="-11.19" dx="2" dy="1" layer="1"/>
<smd name="12" x="-6.35" y="-12.69" dx="2" dy="1" layer="1"/>
<smd name="13" x="-6.35" y="-14.19" dx="2" dy="1" layer="1"/>
<smd name="22" x="6.65" y="-14.19" dx="2" dy="1" layer="1"/>
<smd name="23" x="6.65" y="-12.69" dx="2" dy="1" layer="1"/>
<smd name="24" x="6.65" y="-11.19" dx="2" dy="1" layer="1"/>
<smd name="25" x="6.65" y="-9.69" dx="2" dy="1" layer="1"/>
<smd name="26" x="6.65" y="-8.19" dx="2" dy="1" layer="1"/>
<smd name="27" x="6.65" y="-6.69" dx="2" dy="1" layer="1"/>
<smd name="28" x="6.65" y="-5.19" dx="2" dy="1" layer="1"/>
<smd name="29" x="6.65" y="-3.69" dx="2" dy="1" layer="1"/>
<smd name="30" x="6.65" y="-2.19" dx="2" dy="1" layer="1"/>
<smd name="31" x="6.65" y="-0.69" dx="2" dy="1" layer="1"/>
<smd name="32" x="6.65" y="0.81" dx="2" dy="1" layer="1"/>
<smd name="33" x="6.65" y="2.31" dx="2" dy="1" layer="1"/>
<smd name="34" x="6.65" y="3.81" dx="2" dy="1" layer="1"/>
<smd name="14" x="-5.1" y="-15.94" dx="1.8" dy="1" layer="1" rot="R90"/>
<smd name="15" x="-3.6" y="-15.94" dx="1.8" dy="1" layer="1" rot="R90"/>
<smd name="16" x="-2.1" y="-15.94" dx="1.8" dy="1" layer="1" rot="R90"/>
<smd name="17" x="-0.6" y="-15.94" dx="1.8" dy="1" layer="1" rot="R90"/>
<smd name="18" x="0.9" y="-15.94" dx="1.8" dy="1" layer="1" rot="R90"/>
<smd name="19" x="2.4" y="-15.94" dx="1.8" dy="1" layer="1" rot="R90"/>
<smd name="20" x="3.9" y="-15.94" dx="1.8" dy="1" layer="1" rot="R90"/>
<smd name="21" x="5.4" y="-15.94" dx="1.8" dy="1" layer="1" rot="R90"/>
<text x="-5.35" y="11.31" size="1.27" layer="25">&gt;name</text>
</package>
</packages>
<symbols>
<symbol name="HC-05">
<wire x1="-17.78" y1="17.78" x2="-17.78" y2="-17.78" width="0.254" layer="94"/>
<wire x1="-17.78" y1="-17.78" x2="20.32" y2="-17.78" width="0.254" layer="94"/>
<wire x1="20.32" y1="-17.78" x2="20.32" y2="17.78" width="0.254" layer="94"/>
<wire x1="20.32" y1="17.78" x2="-17.78" y2="17.78" width="0.254" layer="94"/>
<text x="-17.78" y="22.86" size="1.778" layer="95">&gt;NAME</text>
<text x="-17.78" y="20.32" size="1.778" layer="96">&gt;VALUE</text>
<pin name="TX" x="-22.86" y="15.24" length="middle"/>
<pin name="RX" x="-22.86" y="12.7" length="middle"/>
<pin name="CTS" x="-22.86" y="10.16" length="middle"/>
<pin name="RTS" x="-22.86" y="7.62" length="middle"/>
<pin name="PCM_CLK" x="-22.86" y="5.08" length="middle"/>
<pin name="PCM_OUT" x="-22.86" y="2.54" length="middle"/>
<pin name="PCM_IN" x="-22.86" y="0" length="middle"/>
<pin name="PCN_SYNC" x="-22.86" y="-2.54" length="middle"/>
<pin name="AIO0" x="-22.86" y="-5.08" length="middle"/>
<pin name="AIO1" x="-22.86" y="-7.62" length="middle"/>
<pin name="RST" x="-22.86" y="-10.16" length="middle"/>
<pin name="3V3" x="-22.86" y="-12.7" length="middle"/>
<pin name="GND" x="-22.86" y="-15.24" length="middle"/>
<pin name="NC" x="-7.62" y="-22.86" length="middle" rot="R90"/>
<pin name="VBUSD-" x="-5.08" y="-22.86" length="middle" rot="R90"/>
<pin name="CSB" x="-2.54" y="-22.86" length="middle" rot="R90"/>
<pin name="MOSI" x="0" y="-22.86" length="middle" rot="R90"/>
<pin name="MISO" x="2.54" y="-22.86" length="middle" rot="R90"/>
<pin name="CLK" x="5.08" y="-22.86" length="middle" rot="R90"/>
<pin name="VBUSD+" x="7.62" y="-22.86" length="middle" rot="R90"/>
<pin name="GND1" x="10.16" y="-22.86" length="middle" rot="R90"/>
<pin name="GND2" x="25.4" y="-15.24" length="middle" rot="R180"/>
<pin name="PIO0" x="25.4" y="-12.7" length="middle" rot="R180"/>
<pin name="PIO1" x="25.4" y="-10.16" length="middle" rot="R180"/>
<pin name="PIO2" x="25.4" y="-7.62" length="middle" rot="R180"/>
<pin name="PIO3" x="25.4" y="-5.08" length="middle" rot="R180"/>
<pin name="PIO4" x="25.4" y="-2.54" length="middle" rot="R180"/>
<pin name="PIO5" x="25.4" y="0" length="middle" rot="R180"/>
<pin name="PIO6" x="25.4" y="2.54" length="middle" rot="R180"/>
<pin name="PIO7" x="25.4" y="5.08" length="middle" rot="R180"/>
<pin name="PIO8" x="25.4" y="7.62" length="middle" rot="R180"/>
<pin name="PIO9" x="25.4" y="10.16" length="middle" rot="R180"/>
<pin name="PIO10" x="25.4" y="12.7" length="middle" rot="R180"/>
<pin name="PIO11" x="25.4" y="15.24" length="middle" rot="R180"/>
</symbol>
</symbols>
<devicesets>
<deviceset name="HC_05" prefix="U">
<description>HC-05 Bluetooth Module</description>
<gates>
<gate name="G$1" symbol="HC-05" x="0" y="0"/>
</gates>
<devices>
<device name="" package="BLUETOOTH_SMD">
<connects>
<connect gate="G$1" pin="3V3" pad="12"/>
<connect gate="G$1" pin="AIO0" pad="9"/>
<connect gate="G$1" pin="AIO1" pad="10"/>
<connect gate="G$1" pin="CLK" pad="19"/>
<connect gate="G$1" pin="CSB" pad="16"/>
<connect gate="G$1" pin="CTS" pad="3"/>
<connect gate="G$1" pin="GND" pad="13"/>
<connect gate="G$1" pin="GND1" pad="21"/>
<connect gate="G$1" pin="GND2" pad="22"/>
<connect gate="G$1" pin="MISO" pad="18"/>
<connect gate="G$1" pin="MOSI" pad="17"/>
<connect gate="G$1" pin="NC" pad="14"/>
<connect gate="G$1" pin="PCM_CLK" pad="5"/>
<connect gate="G$1" pin="PCM_IN" pad="7"/>
<connect gate="G$1" pin="PCM_OUT" pad="6"/>
<connect gate="G$1" pin="PCN_SYNC" pad="8"/>
<connect gate="G$1" pin="PIO0" pad="23"/>
<connect gate="G$1" pin="PIO1" pad="24"/>
<connect gate="G$1" pin="PIO10" pad="33"/>
<connect gate="G$1" pin="PIO11" pad="34"/>
<connect gate="G$1" pin="PIO2" pad="25"/>
<connect gate="G$1" pin="PIO3" pad="26"/>
<connect gate="G$1" pin="PIO4" pad="27"/>
<connect gate="G$1" pin="PIO5" pad="28"/>
<connect gate="G$1" pin="PIO6" pad="29"/>
<connect gate="G$1" pin="PIO7" pad="30"/>
<connect gate="G$1" pin="PIO8" pad="31"/>
<connect gate="G$1" pin="PIO9" pad="32"/>
<connect gate="G$1" pin="RST" pad="11"/>
<connect gate="G$1" pin="RTS" pad="4"/>
<connect gate="G$1" pin="RX" pad="2"/>
<connect gate="G$1" pin="TX" pad="1"/>
<connect gate="G$1" pin="VBUSD+" pad="20"/>
<connect gate="G$1" pin="VBUSD-" pad="15"/>
</connects>
<technologies>
<technology name=""/>
</technologies>
</device>
</devices>
</deviceset>
</devicesets>
</library>
<library name="Ultrasonic Sensor HC-SR04">
<description>Ultrasonic Sensor HC-SR04</description>
<packages>
<package name="HC-SR04_FOOTPRINT">
<description>Ultrasonic Sensor HC-SR04 Footprint</description>
<pad name="ECHO" x="0" y="1.27" drill="0.9" diameter="1.778"/>
<pad name="TRIG" x="0" y="-1.27" drill="0.9" diameter="1.778"/>
<pad name="VCC" x="0" y="-3.81" drill="0.9" diameter="1.778"/>
<pad name="GND" x="0" y="3.81" drill="0.9" diameter="1.778" shape="square"/>
<wire x1="-1.27" y1="5.08" x2="-1.27" y2="-5.08" width="0.127" layer="21"/>
<wire x1="-1.27" y1="-5.08" x2="1.27" y2="-5.08" width="0.127" layer="21"/>
<wire x1="1.27" y1="-5.08" x2="1.27" y2="5.08" width="0.127" layer="21"/>
<wire x1="1.27" y1="5.08" x2="-1.27" y2="5.08" width="0.127" layer="21"/>
<text x="1.397" y="3.556" size="0.6096" layer="21">GND</text>
<text x="1.397" y="1.016" size="0.6096" layer="21">Echo</text>
<text x="1.397" y="-1.524" size="0.6096" layer="21">Trig</text>
<text x="1.397" y="-4.064" size="0.6096" layer="21">VCC</text>
<text x="-2.032" y="-5.08" size="1.016" layer="25" ratio="12" rot="R90">&gt;NAME</text>
</package>
</packages>
<symbols>
<symbol name="HC-SR04_SYMBOL">
<description>Ultrasonic Sensor HC-SR04 Schematic</description>
<pin name="GND" x="-12.7" y="7.62" length="middle"/>
<pin name="ECHO" x="-12.7" y="2.54" length="middle"/>
<pin name="TRIG" x="-12.7" y="-2.54" length="middle"/>
<pin name="5V" x="-12.7" y="-7.62" length="middle"/>
<wire x1="-7.62" y1="10.16" x2="-7.62" y2="-10.16" width="0.254" layer="94"/>
<wire x1="-7.62" y1="-10.16" x2="2.54" y2="-10.16" width="0.254" layer="94"/>
<wire x1="2.54" y1="-10.16" x2="2.54" y2="10.16" width="0.254" layer="94"/>
<wire x1="2.54" y1="10.16" x2="-7.62" y2="10.16" width="0.254" layer="94"/>
<text x="-7.62" y="10.922" size="1.778" layer="95" ratio="12">&gt;NAME</text>
<text x="-7.62" y="-12.954" size="1.778" layer="96" ratio="12">&gt;VALUE</text>
</symbol>
</symbols>
<devicesets>
<deviceset name="HC-SR04" prefix="J_ULTRASONIC_">
<description>Ultrasonic Sensor HC-SR04</description>
<gates>
<gate name="J_ULTRASONIC" symbol="HC-SR04_SYMBOL" x="0" y="0"/>
</gates>
<devices>
<device name="" package="HC-SR04_FOOTPRINT">
<connects>
<connect gate="J_ULTRASONIC" pin="5V" pad="VCC"/>
<connect gate="J_ULTRASONIC" pin="ECHO" pad="ECHO"/>
<connect gate="J_ULTRASONIC" pin="GND" pad="GND"/>
<connect gate="J_ULTRASONIC" pin="TRIG" pad="TRIG"/>
</connects>
<technologies>
<technology name=""/>
</technologies>
</device>
</devices>
</deviceset>
</devicesets>
</library>
<library name="DHT11">
<packages>
<package name="DHT11">
<wire x1="-6.096" y1="8.0264" x2="6.0452" y2="8.0264" width="0.127" layer="21"/>
<wire x1="6.0452" y1="8.0264" x2="6.0452" y2="-8.2296" width="0.127" layer="21"/>
<wire x1="6.0452" y1="-8.2296" x2="-6.096" y2="-8.2296" width="0.127" layer="21"/>
<wire x1="-6.096" y1="-8.2296" x2="-6.096" y2="8.0264" width="0.127" layer="21"/>
<wire x1="-0.1524" y1="1.9812" x2="0.1524" y2="1.9812" width="0.127" layer="21"/>
<wire x1="0.1524" y1="1.9812" x2="0.1524" y2="1.6764" width="0.127" layer="21"/>
<wire x1="0.1524" y1="1.6764" x2="-0.1524" y2="1.6764" width="0.127" layer="21"/>
<wire x1="-0.1524" y1="1.6764" x2="-0.1524" y2="1.9812" width="0.127" layer="21"/>
<wire x1="-5.6388" y1="2.032" x2="-5.334" y2="2.032" width="0.127" layer="21"/>
<wire x1="-5.334" y1="2.032" x2="-5.334" y2="1.7272" width="0.127" layer="21"/>
<wire x1="-5.334" y1="1.7272" x2="-5.6388" y2="1.7272" width="0.127" layer="21"/>
<wire x1="-5.6388" y1="1.7272" x2="-5.6388" y2="2.032" width="0.127" layer="21"/>
<wire x1="5.334" y1="2.032" x2="5.6388" y2="2.032" width="0.127" layer="21"/>
<wire x1="5.6388" y1="2.032" x2="5.6388" y2="1.7272" width="0.127" layer="21"/>
<wire x1="5.6388" y1="1.7272" x2="5.334" y2="1.7272" width="0.127" layer="21"/>
<wire x1="5.334" y1="1.7272" x2="5.334" y2="2.032" width="0.127" layer="21"/>
<wire x1="-2.8956" y1="2.032" x2="-2.5908" y2="2.032" width="0.127" layer="21"/>
<wire x1="-2.5908" y1="2.032" x2="-2.5908" y2="1.7272" width="0.127" layer="21"/>
<wire x1="-2.5908" y1="1.7272" x2="-2.8956" y2="1.7272" width="0.127" layer="21"/>
<wire x1="-2.8956" y1="1.7272" x2="-2.8956" y2="2.032" width="0.127" layer="21"/>
<wire x1="2.5908" y1="2.032" x2="2.8956" y2="2.032" width="0.127" layer="21"/>
<wire x1="2.8956" y1="2.032" x2="2.8956" y2="1.7272" width="0.127" layer="21"/>
<wire x1="2.8956" y1="1.7272" x2="2.5908" y2="1.7272" width="0.127" layer="21"/>
<wire x1="2.5908" y1="1.7272" x2="2.5908" y2="2.032" width="0.127" layer="21"/>
<wire x1="-0.2032" y1="-0.5588" x2="0.1016" y2="-0.5588" width="0.127" layer="21"/>
<wire x1="0.1016" y1="-0.5588" x2="0.1016" y2="-0.8636" width="0.127" layer="21"/>
<wire x1="0.1016" y1="-0.8636" x2="-0.2032" y2="-0.8636" width="0.127" layer="21"/>
<wire x1="-0.2032" y1="-0.8636" x2="-0.2032" y2="-0.5588" width="0.127" layer="21"/>
<wire x1="-5.6896" y1="-0.508" x2="-5.3848" y2="-0.508" width="0.127" layer="21"/>
<wire x1="-5.3848" y1="-0.508" x2="-5.3848" y2="-0.8128" width="0.127" layer="21"/>
<wire x1="-5.3848" y1="-0.8128" x2="-5.6896" y2="-0.8128" width="0.127" layer="21"/>
<wire x1="-5.6896" y1="-0.8128" x2="-5.6896" y2="-0.508" width="0.127" layer="21"/>
<wire x1="5.2832" y1="-0.508" x2="5.588" y2="-0.508" width="0.127" layer="21"/>
<wire x1="5.588" y1="-0.508" x2="5.588" y2="-0.8128" width="0.127" layer="21"/>
<wire x1="5.588" y1="-0.8128" x2="5.2832" y2="-0.8128" width="0.127" layer="21"/>
<wire x1="5.2832" y1="-0.8128" x2="5.2832" y2="-0.508" width="0.127" layer="21"/>
<wire x1="-2.9464" y1="-0.508" x2="-2.6416" y2="-0.508" width="0.127" layer="21"/>
<wire x1="-2.6416" y1="-0.508" x2="-2.6416" y2="-0.8128" width="0.127" layer="21"/>
<wire x1="-2.6416" y1="-0.8128" x2="-2.9464" y2="-0.8128" width="0.127" layer="21"/>
<wire x1="-2.9464" y1="-0.8128" x2="-2.9464" y2="-0.508" width="0.127" layer="21"/>
<wire x1="2.54" y1="-0.508" x2="2.8448" y2="-0.508" width="0.127" layer="21"/>
<wire x1="2.8448" y1="-0.508" x2="2.8448" y2="-0.8128" width="0.127" layer="21"/>
<wire x1="2.8448" y1="-0.8128" x2="2.54" y2="-0.8128" width="0.127" layer="21"/>
<wire x1="2.54" y1="-0.8128" x2="2.54" y2="-0.508" width="0.127" layer="21"/>
<wire x1="-0.1524" y1="7.366" x2="0.1524" y2="7.366" width="0.127" layer="21"/>
<wire x1="0.1524" y1="7.366" x2="0.1524" y2="7.0612" width="0.127" layer="21"/>
<wire x1="0.1524" y1="7.0612" x2="-0.1524" y2="7.0612" width="0.127" layer="21"/>
<wire x1="-0.1524" y1="7.0612" x2="-0.1524" y2="7.366" width="0.127" layer="21"/>
<wire x1="-2.8956" y1="7.4168" x2="-2.5908" y2="7.4168" width="0.127" layer="21"/>
<wire x1="-2.5908" y1="7.4168" x2="-2.5908" y2="7.112" width="0.127" layer="21"/>
<wire x1="-2.5908" y1="7.112" x2="-2.8956" y2="7.112" width="0.127" layer="21"/>
<wire x1="-2.8956" y1="7.112" x2="-2.8956" y2="7.4168" width="0.127" layer="21"/>
<wire x1="2.5908" y1="7.4168" x2="2.8956" y2="7.4168" width="0.127" layer="21"/>
<wire x1="2.8956" y1="7.4168" x2="2.8956" y2="7.112" width="0.127" layer="21"/>
<wire x1="2.8956" y1="7.112" x2="2.5908" y2="7.112" width="0.127" layer="21"/>
<wire x1="2.5908" y1="7.112" x2="2.5908" y2="7.4168" width="0.127" layer="21"/>
<wire x1="-0.2032" y1="4.826" x2="0.1016" y2="4.826" width="0.127" layer="21"/>
<wire x1="0.1016" y1="4.826" x2="0.1016" y2="4.5212" width="0.127" layer="21"/>
<wire x1="0.1016" y1="4.5212" x2="-0.2032" y2="4.5212" width="0.127" layer="21"/>
<wire x1="-0.2032" y1="4.5212" x2="-0.2032" y2="4.826" width="0.127" layer="21"/>
<wire x1="-2.9464" y1="4.8768" x2="-2.6416" y2="4.8768" width="0.127" layer="21"/>
<wire x1="-2.6416" y1="4.8768" x2="-2.6416" y2="4.572" width="0.127" layer="21"/>
<wire x1="-2.6416" y1="4.572" x2="-2.9464" y2="4.572" width="0.127" layer="21"/>
<wire x1="-2.9464" y1="4.572" x2="-2.9464" y2="4.8768" width="0.127" layer="21"/>
<wire x1="2.54" y1="4.8768" x2="2.8448" y2="4.8768" width="0.127" layer="21"/>
<wire x1="2.8448" y1="4.8768" x2="2.8448" y2="4.572" width="0.127" layer="21"/>
<wire x1="2.8448" y1="4.572" x2="2.54" y2="4.572" width="0.127" layer="21"/>
<wire x1="2.54" y1="4.572" x2="2.54" y2="4.8768" width="0.127" layer="21"/>
<wire x1="-0.2032" y1="-3.302" x2="0.1016" y2="-3.302" width="0.127" layer="21"/>
<wire x1="0.1016" y1="-3.302" x2="0.1016" y2="-3.6068" width="0.127" layer="21"/>
<wire x1="0.1016" y1="-3.6068" x2="-0.2032" y2="-3.6068" width="0.127" layer="21"/>
<wire x1="-0.2032" y1="-3.6068" x2="-0.2032" y2="-3.302" width="0.127" layer="21"/>
<wire x1="-2.9464" y1="-3.2512" x2="-2.6416" y2="-3.2512" width="0.127" layer="21"/>
<wire x1="-2.6416" y1="-3.2512" x2="-2.6416" y2="-3.556" width="0.127" layer="21"/>
<wire x1="-2.6416" y1="-3.556" x2="-2.9464" y2="-3.556" width="0.127" layer="21"/>
<wire x1="-2.9464" y1="-3.556" x2="-2.9464" y2="-3.2512" width="0.127" layer="21"/>
<wire x1="2.54" y1="-3.2512" x2="2.8448" y2="-3.2512" width="0.127" layer="21"/>
<wire x1="2.8448" y1="-3.2512" x2="2.8448" y2="-3.556" width="0.127" layer="21"/>
<wire x1="2.8448" y1="-3.556" x2="2.54" y2="-3.556" width="0.127" layer="21"/>
<wire x1="2.54" y1="-3.556" x2="2.54" y2="-3.2512" width="0.127" layer="21"/>
<wire x1="-0.2032" y1="-5.9944" x2="0.1016" y2="-5.9944" width="0.127" layer="21"/>
<wire x1="0.1016" y1="-5.9944" x2="0.1016" y2="-6.2992" width="0.127" layer="21"/>
<wire x1="0.1016" y1="-6.2992" x2="-0.2032" y2="-6.2992" width="0.127" layer="21"/>
<wire x1="-0.2032" y1="-6.2992" x2="-0.2032" y2="-5.9944" width="0.127" layer="21"/>
<wire x1="-5.6896" y1="-5.9436" x2="-5.3848" y2="-5.9436" width="0.127" layer="21"/>
<wire x1="-5.3848" y1="-5.9436" x2="-5.3848" y2="-6.2484" width="0.127" layer="21"/>
<wire x1="-5.3848" y1="-6.2484" x2="-5.6896" y2="-6.2484" width="0.127" layer="21"/>
<wire x1="-5.6896" y1="-6.2484" x2="-5.6896" y2="-5.9436" width="0.127" layer="21"/>
<wire x1="5.2832" y1="-5.9436" x2="5.588" y2="-5.9436" width="0.127" layer="21"/>
<wire x1="5.588" y1="-5.9436" x2="5.588" y2="-6.2484" width="0.127" layer="21"/>
<wire x1="5.588" y1="-6.2484" x2="5.2832" y2="-6.2484" width="0.127" layer="21"/>
<wire x1="5.2832" y1="-6.2484" x2="5.2832" y2="-5.9436" width="0.127" layer="21"/>
<wire x1="-2.9464" y1="-5.9436" x2="-2.6416" y2="-5.9436" width="0.127" layer="21"/>
<wire x1="-2.6416" y1="-5.9436" x2="-2.6416" y2="-6.2484" width="0.127" layer="21"/>
<wire x1="-2.6416" y1="-6.2484" x2="-2.9464" y2="-6.2484" width="0.127" layer="21"/>
<wire x1="-2.9464" y1="-6.2484" x2="-2.9464" y2="-5.9436" width="0.127" layer="21"/>
<wire x1="2.54" y1="-5.9436" x2="2.8448" y2="-5.9436" width="0.127" layer="21"/>
<wire x1="2.8448" y1="-5.9436" x2="2.8448" y2="-6.2484" width="0.127" layer="21"/>
<wire x1="2.8448" y1="-6.2484" x2="2.54" y2="-6.2484" width="0.127" layer="21"/>
<wire x1="2.54" y1="-6.2484" x2="2.54" y2="-5.9436" width="0.127" layer="21"/>
<text x="-2.5908" y="5.334" size="1.27" layer="25">DHT11</text>
<pad name="VCC" x="-3.81" y="-11.43" drill="0.8" diameter="2.1844" shape="square"/>
<pad name="DATA" x="-1.27" y="-11.43" drill="0.8" diameter="2.1844" shape="square"/>
<pad name="NO" x="1.27" y="-11.43" drill="0.8" diameter="2.1844" shape="square"/>
<pad name="GND" x="3.81" y="-11.43" drill="0.8" diameter="2.1844" shape="square"/>
</package>
</packages>
<symbols>
<symbol name="DHT11">
<wire x1="-5.08" y1="7.62" x2="7.62" y2="7.62" width="0.254" layer="94"/>
<wire x1="7.62" y1="7.62" x2="7.62" y2="-7.62" width="0.254" layer="94"/>
<wire x1="7.62" y1="-7.62" x2="-5.08" y2="-7.62" width="0.254" layer="94"/>
<wire x1="-5.08" y1="-7.62" x2="-5.08" y2="7.62" width="0.254" layer="94"/>
<text x="-2.286" y="5.08" size="1.778" layer="95">DHT11</text>
<pin name="VCC" x="-2.54" y="-12.7" length="middle" rot="R90"/>
<pin name="DATA" x="0" y="-12.7" length="middle" rot="R90"/>
<pin name="NO" x="2.54" y="-12.7" length="middle" rot="R90"/>
<pin name="GND" x="5.08" y="-12.7" length="middle" rot="R90"/>
</symbol>
</symbols>
<devicesets>
<deviceset name="DHT11" uservalue="yes">
<description>DHT11 Czujnik temperatury i wilgotności</description>
<gates>
<gate name="G$1" symbol="DHT11" x="-0.762" y="0.254"/>
</gates>
<devices>
<device name="" package="DHT11">
<connects>
<connect gate="G$1" pin="DATA" pad="DATA"/>
<connect gate="G$1" pin="GND" pad="GND"/>
<connect gate="G$1" pin="NO" pad="NO"/>
<connect gate="G$1" pin="VCC" pad="VCC"/>
</connects>
<technologies>
<technology name=""/>
</technologies>
</device>
</devices>
</deviceset>
</devicesets>
</library>
</libraries>
<attributes>
</attributes>
<variantdefs>
</variantdefs>
<classes>
<class number="0" name="default" width="0" drill="0">
</class>
</classes>
<modules>
<module name="HUMIDITY_TEMP_SENSOR" prefix="DHT11" dx="30.48" dy="20.32">
<ports>
</ports>
<variantdefs>
</variantdefs>
<parts>
</parts>
<sheets>
<sheet>
<plain>
</plain>
<instances>
</instances>
<busses>
</busses>
<nets>
</nets>
</sheet>
</sheets>
</module>
</modules>
<parts>
<part name="U1" library="adafruit" deviceset="ARDUINOR3" device="-DIMENSION"/>
<part name="U2" library="Bluetooth HC-05" deviceset="HC_05" device=""/>
<part name="J_ULTRASONIC_1" library="Ultrasonic Sensor HC-SR04" deviceset="HC-SR04" device=""/>
<part name="U$1" library="DHT11" deviceset="DHT11" device=""/>
</parts>
<sheets>
<sheet>
<plain>
</plain>
<instances>
<instance part="U1" gate="G$1" x="50.8" y="46.99"/>
<instance part="U2" gate="G$1" x="116.84" y="40.64"/>
<instance part="J_ULTRASONIC_1" gate="J_ULTRASONIC" x="-5.08" y="20.32"/>
<instance part="U$1" gate="G$1" x="-2.54" y="78.74"/>
</instances>
<busses>
</busses>
<nets>
<net name="N$1" class="0">
<segment>
<pinref part="U1" gate="G$1" pin="GND1"/>
<wire x1="53.34" y1="16.51" x2="53.34" y2="7.62" width="0.1524" layer="91"/>
<wire x1="53.34" y1="7.62" x2="12.7" y2="7.62" width="0.1524" layer="91"/>
<wire x1="12.7" y1="7.62" x2="12.7" y2="53.34" width="0.1524" layer="91"/>
<wire x1="12.7" y1="53.34" x2="2.54" y2="53.34" width="0.1524" layer="91"/>
<pinref part="J_ULTRASONIC_1" gate="J_ULTRASONIC" pin="GND"/>
<wire x1="2.54" y1="53.34" x2="-27.94" y2="53.34" width="0.1524" layer="91"/>
<wire x1="-27.94" y1="53.34" x2="-17.78" y2="27.94" width="0.1524" layer="91"/>
<pinref part="U2" gate="G$1" pin="GND"/>
<wire x1="93.98" y1="25.4" x2="93.98" y2="7.62" width="0.1524" layer="91"/>
<wire x1="93.98" y1="7.62" x2="53.34" y2="7.62" width="0.1524" layer="91"/>
<junction x="53.34" y="7.62"/>
<pinref part="U$1" gate="G$1" pin="GND"/>
<wire x1="2.54" y1="66.04" x2="2.54" y2="53.34" width="0.1524" layer="91"/>
<junction x="2.54" y="53.34"/>
</segment>
</net>
<net name="N$2" class="0">
<segment>
<pinref part="U1" gate="G$1" pin="5V"/>
<wire x1="48.26" y1="16.51" x2="45.72" y2="0" width="0.1524" layer="91"/>
<pinref part="U2" gate="G$1" pin="3V3"/>
<wire x1="45.72" y1="0" x2="66.04" y2="0" width="0.1524" layer="91"/>
<wire x1="66.04" y1="0" x2="93.98" y2="27.94" width="0.1524" layer="91"/>
<pinref part="J_ULTRASONIC_1" gate="J_ULTRASONIC" pin="5V"/>
<wire x1="-17.78" y1="12.7" x2="-17.78" y2="0" width="0.1524" layer="91"/>
<wire x1="-17.78" y1="0" x2="5.08" y2="0" width="0.1524" layer="91"/>
<junction x="45.72" y="0"/>
<pinref part="U$1" gate="G$1" pin="VCC"/>
<wire x1="5.08" y1="0" x2="45.72" y2="0" width="0.1524" layer="91"/>
<wire x1="-5.08" y1="66.04" x2="-5.08" y2="40.64" width="0.1524" layer="91"/>
<wire x1="-5.08" y1="40.64" x2="5.08" y2="40.64" width="0.1524" layer="91"/>
<wire x1="5.08" y1="40.64" x2="5.08" y2="0" width="0.1524" layer="91"/>
<junction x="5.08" y="0"/>
</segment>
</net>
<net name="N$3" class="0">
<segment>
<pinref part="J_ULTRASONIC_1" gate="J_ULTRASONIC" pin="ECHO"/>
<wire x1="-17.78" y1="22.86" x2="-33.02" y2="48.26" width="0.1524" layer="91"/>
<wire x1="-33.02" y1="48.26" x2="-33.02" y2="88.9" width="0.1524" layer="91"/>
<pinref part="U1" gate="G$1" pin="D4"/>
<wire x1="-33.02" y1="88.9" x2="49.53" y2="88.9" width="0.1524" layer="91"/>
<wire x1="49.53" y1="88.9" x2="60.96" y2="77.47" width="0.1524" layer="91"/>
</segment>
</net>
<net name="N$4" class="0">
<segment>
<pinref part="J_ULTRASONIC_1" gate="J_ULTRASONIC" pin="TRIG"/>
<wire x1="-17.78" y1="17.78" x2="-35.56" y2="43.18" width="0.1524" layer="91"/>
<wire x1="-35.56" y1="43.18" x2="-35.56" y2="93.98" width="0.1524" layer="91"/>
<wire x1="-35.56" y1="93.98" x2="50.8" y2="93.98" width="0.1524" layer="91"/>
<wire x1="50.8" y1="93.98" x2="66.04" y2="78.74" width="0.1524" layer="91"/>
</segment>
</net>
<net name="N$6" class="0">
<segment>
<pinref part="U1" gate="G$1" pin="D12"/>
<wire x1="38.1" y1="77.47" x2="44.45" y2="83.82" width="0.1524" layer="91"/>
<wire x1="44.45" y1="83.82" x2="81.28" y2="83.82" width="0.1524" layer="91"/>
<pinref part="U2" gate="G$1" pin="TX"/>
<wire x1="81.28" y1="83.82" x2="81.28" y2="68.58" width="0.1524" layer="91"/>
<wire x1="81.28" y1="68.58" x2="93.98" y2="55.88" width="0.1524" layer="91"/>
</segment>
</net>
<net name="N$7" class="0">
<segment>
<pinref part="U1" gate="G$1" pin="D13"/>
<wire x1="35.56" y1="77.47" x2="35.56" y2="83.82" width="0.1524" layer="91"/>
<wire x1="35.56" y1="83.82" x2="38.1" y2="86.36" width="0.1524" layer="91"/>
<wire x1="38.1" y1="86.36" x2="86.36" y2="86.36" width="0.1524" layer="91"/>
<wire x1="86.36" y1="86.36" x2="93.98" y2="78.74" width="0.1524" layer="91"/>
<wire x1="93.98" y1="78.74" x2="86.36" y2="71.12" width="0.1524" layer="91"/>
<wire x1="86.36" y1="71.12" x2="86.36" y2="53.34" width="0.1524" layer="91"/>
<pinref part="U2" gate="G$1" pin="RX"/>
<wire x1="86.36" y1="53.34" x2="93.98" y2="53.34" width="0.1524" layer="91"/>
</segment>
</net>
<net name="N$8" class="0">
<segment>
<wire x1="177.8" y1="88.9" x2="162.56" y2="73.66" width="0.1524" layer="91"/>
</segment>
</net>
<net name="N$10" class="0">
<segment>
<pinref part="U$1" gate="G$1" pin="DATA"/>
<wire x1="-2.54" y1="66.04" x2="-2.54" y2="58.42" width="0.1524" layer="91"/>
<wire x1="-2.54" y1="58.42" x2="12.7" y2="58.42" width="0.1524" layer="91"/>
<wire x1="12.7" y1="58.42" x2="12.7" y2="99.06" width="0.1524" layer="91"/>
<pinref part="U1" gate="G$1" pin="D7"/>
<wire x1="12.7" y1="99.06" x2="53.34" y2="99.06" width="0.1524" layer="91"/>
<wire x1="53.34" y1="99.06" x2="53.34" y2="77.47" width="0.1524" layer="91"/>
</segment>
</net>
</nets>
</sheet>
</sheets>
</schematic>
</drawing>
</eagle>
